Basic Regression
…
for(v in names(model)){
  pct <- round((exp(coef(model[[v]])["points"]) - 1) * 100,2)
  print(str_c("For ",v,", a 1 point ratings increase leads to a ",pct,"% increase in price."))
}

## [1] "For Chardonnay, a 1 point ratings increase leads to a 11.48% increase in price."
## [1] "For Pinot Gris, a 1 point ratings increase leads to a 5.42% increase in price."
## [1] "For Pinot Noir, a 1 point ratings increase leads to a 10.35% increase in price."

Looking at the residuals

model <- lm(lprice~points, filter(wine,province=="Oregon"))
get_regression_points(model)

## # A tibble: 5,359 x 5
##       ID lprice points lprice_hat residual
##    <int>  <dbl>  <dbl>      <dbl>    <dbl>
##  1     1   2.64     87       3.27   -0.635
##  2     2   4.17     87       3.27    0.9  
##  3     3   3.00     87       3.27   -0.278
##  4     4   3.91     86       3.18    0.732
##  5     5   3.09     86       3.18   -0.089
##  6     6   3.22     86       3.18    0.039
##  7     7   3.64     91       3.65   -0.011
##  8     8   3.33     85       3.09    0.246
##  9     9   3.81     85       3.09    0.72 
## 10    10   3.09     85       3.09    0.004
## #  with 5,349 more rows
…
## # A tibble: 3 x 7
##   term              estimate std_error statistic p_value lower_ci upper_ci
##   <chr>                <dbl>     <dbl>     <dbl>   <dbl>    <dbl>    <dbl>
## 1 intercept           89.7       0.12     751.     0       89.5     90.0  
## 2 varietyPinot Gris   -1.18      0.171     -6.90   0       -1.52    -0.847
## 3 varietyPinot Noir   -0.243     0.13      -1.88   0.061   -0.498    0.011

What is the equation for this regression?

Residuals

get_regression_points(model) 

## # A tibble: 3,749 x 5
##       ID points variety    points_hat residual
##    <int>  <dbl> <chr>           <dbl>    <dbl>
##  1     1     87 Pinot Gris       88.5    -1.53
##  2     2     87 Pinot Noir       89.5    -2.47
##  3     3     87 Pinot Noir       89.5    -2.47
##  4     4     86 Pinot Noir       89.5    -3.47
##  5     5     86 Pinot Noir       89.5    -3.47
##  6     6     86 Pinot Noir       89.5    -3.47
##  7     7     91 Pinot Noir       89.5     1.53
##  8     8     85 Pinot Noir       89.5    -4.47
##  9     9     85 Pinot Noir       89.5    -4.47
## 10    10     85 Pinot Noir       89.5    -4.47
## #  with 3,739 more rows
…
