Summarize and Plot
…
Open everything (notes, book, internet) except communication

Questions will get progressively more difficult

Review

Joining, Mutation, and Strings

First things first, lets load in my new data on monthly rainfall and take a look. What do you notice?

rain <- read_csv("../resources/rainfall.csv")
rain

## # A tibble: 48 x 13
##     Year   Jan   Feb   Mar   Apr   May   Jun   Jul   Aug   Sep   Oct   Nov
##    <dbl> <dbl> <dbl> <dbl> <dbl> <dbl> <dbl> <dbl> <dbl> <dbl> <dbl> <dbl>
##  1  1970 13.5   4.46  1.92  2.63  1.36  0.85  0.01 NA     1.81  3.25  7.18
##  2  1971  6.49  4.34  6.93  4.05  1.89  2.47  0.01  1.49  3.98  3.09  6.27
##  3  1972  7.98  4.68  4.96  3.79  2.4   0.69  0.12  0.14  2.07  0.7   3.77
##  4  1973  5.64  1.62  3.5   1.69  1.11  1.48 NA     0.8   2.8   2.79 15.2 
##  5  1974 10.9   5.56  7.95  1.48  0.9   0.41  1.8   0.11  0.28  2.15  7.42
##  6  1975  4.96  4.68  4.22  2.2   1.66  0.81  0.51  1.96  0     5.51  6.06
##  7  1976  5.47  6.92  3.66  2     1.33  1.04  0.67  1.89  1.13  1.51  1.13
##  8  1977  0.88  2.83  3.33  0.62  3.76  0.73  0.26  1.7   2.36  2.37  6.19
##  9  1978  5.67  3.54  1.23  3.5   2.97  0.48  1.07  2.56  2.64  0.37  4.5 
## 10  1979  2.84  7.19  2.17  2.82  2.2   0.65  0.3   0.7   2.19  6.06  3.83
## #  with 38 more rows, and 1 more variable: Dec <dbl>

Tidyr 1.0.0

Tidyr has replaced spread() and gather() with pivot_wider() and pivot_longer(). I encourage you to read about the developments here.

rain %>% 
  rename("year"="Year") %>% 
  pivot_longer(-year,names_to = "month", values_to = "rainfall")

## # A tibble: 576 x 3
##     year month rainfall
##    <dbl> <chr>    <dbl>
##  1  1970 Jan      13.5 
##  2  1970 Feb       4.46
##  3  1970 Mar       1.92
##  4  1970 Apr       2.63
##  5  1970 May       1.36
##  6  1970 Jun       0.85
##  7  1970 Jul       0.01
##  8  1970 Aug      NA   
##  9  1970 Sep       1.81
## 10  1970 Oct       3.25
## #  with 566 more rows
…
Solution

Note: See here for an intuitive tutorial on joins.

wine <- read_csv("../resources/winemag-data.csv") %>% 
  filter(!is.na(price)) %>%
  filter(province=="Oregon") %>% 
  mutate(year = as.numeric(str_extract(title,"(\\d{4})"))) %>% 
  left_join(rain, by=c("year"="Year")) %>% 
  pivot_longer(16:27,names_to = "month", values_to = "rainfall")

wine %>% 
  select(title, month, year, rainfall)

## # A tibble: 64,308 x 4
##    title                                         month  year rainfall
##    <chr>                                         <chr> <dbl>    <dbl>
##  1 Rainstorm 2013 Pinot Gris (Willamette Valley) Jan    2013     1.63
##  2 Rainstorm 2013 Pinot Gris (Willamette Valley) Feb    2013     1.42
##  3 Rainstorm 2013 Pinot Gris (Willamette Valley) Mar    2013     2.21
##  4 Rainstorm 2013 Pinot Gris (Willamette Valley) Apr    2013     2.39
##  5 Rainstorm 2013 Pinot Gris (Willamette Valley) May    2013     2.94
##  6 Rainstorm 2013 Pinot Gris (Willamette Valley) Jun    2013     1.02
##  7 Rainstorm 2013 Pinot Gris (Willamette Valley) Jul    2013     0   
##  8 Rainstorm 2013 Pinot Gris (Willamette Valley) Aug    2013     0.35
##  9 Rainstorm 2013 Pinot Gris (Willamette Valley) Sep    2013     7.05
## 10 Rainstorm 2013 Pinot Gris (Willamette Valley) Oct    2013     0.63
## #  with 64,298 more rows
…
