Tidy Data and Summarization
…
in descending order by points,

and ascending order by price,

that only shows points, price and title

Solution

wine %>% 
  filter(province=="Oregon") %>%
  filter(variety=="Pinot Noir") %>% 
  arrange(desc(points), price) %>% 
  select(points, price, title)

## # A tibble: 2,786 x 3
##    points price title                                                      
##     <dbl> <dbl> <chr>                                                      
##  1     97    65 Ken Wright 2012 Abbott Claim Vineyard Pinot Noir           
##  2     96    30 Sineann 2015 TFL Pinot Noir (Willamette Valley)            
##  3     96    40 Scott Paul 2009 Dix Pinot Noir (Dundee Hills)              
##  4     96    60 Patricia Green Cellars 2015 Estate Vineyard Etzel Block Pi
##  5     96    63 Ken Wright 2014 Bryce Vineyard Pinot Noir (Ribbon Ridge)   
##  6     96    63 Ken Wright 2014 Abbott Claim Vineyard Pinot Noir           
##  7     96    65 Ken Wright 2012 Freedom Hill Vineyard Pinot Noir (Willamet
##  8     96    85 Alloro 2014 Estate Justina Pinot Noir (Chehalem Mountains) 
##  9     96    85 The Eyrie Vineyards 2012 Original Vines Estate Pinot Noir 
## 10     96    85 Domaine Drouhin Oregon 2011 dition Limite Pinot Noir (Du
## #  with 2,776 more rows
…
Showing only points, price and title

arranged by points descending and price ascending.

Solution

wine %>% 
  filter(province=="Oregon") %>% 
  filter(variety != "Pinot Noir" & variety != "Chardonnay") %>% 
  top_frac(.01,points) %>% 
  select(points, price, title) %>%
  arrange(desc(points), price)

## # A tibble: 26 x 3
##    points price title                                                      
##     <dbl> <dbl> <chr>                                                      
##  1     99    75 Cayuse 2009 En Chamberlin Vineyard Syrah (Walla Walla Vall
##  2     99    75 Cayuse 2011 En Chamberlin Vineyard Syrah (Walla Walla Vall
##  3     98    75 Cayuse 2011 En Cerise Vineyard Syrah (Walla Walla Valley (
##  4     97    80 Cayuse 2009 The Widowmaker Cabernet Sauvignon (Walla Walla
##  5     97    85 Cayuse 2009 Armada Vineyard Syrah (Walla Walla Valley (OR))
##  6     97    90 Cayuse 2011 Widowmaker En Chamberlin Vineyard Cabernet Sau
##  7     96    32 Trisaetum 2016 Ribbon Ridge Estate Dry Riesling (Ribbon Ri
##  8     96    38 Trisaetum 2015 Estates Reserve Riesling (Willamette Valley)
##  9     96    70 Cayuse 2012 Cailloux Vineyard Viognier (Walla Walla Valley
## 10     96    75 Cayuse 2009 Camaspelo Cabernet Sauvignon-Merlot (Walla Wal
## #  with 16 more rows
…
Logical (true or false, 1 or 0)

See here for more information.

New dataframes

So far, weve been piping operations from a single dataframe. But what if you want to save the result for later?

wine_oregon <- wine %>% 
  filter(province=="Oregon")

wine_oregon

## # A tibble: 5,373 x 14
##       X1 country description designation points price province region_1
##    <dbl> <chr>   <chr>       <chr>        <dbl> <dbl> <chr>    <chr>   
##  1     2 US      Tart and s <NA>            87    14 Oregon   Willame
##  2     4 US      Much like  Vintner's      87    65 Oregon   Willame
##  3    21 US      A sleek mi <NA>            87    20 Oregon   Oregon  
##  4    35 US      As with ma Hyland          86    50 Oregon   McMinnv
##  5    41 US      A stiff, t <NA>            86    22 Oregon   Willame
##  6    78 US      Some ross Ros of         86    25 Oregon   Eola-Am
##  7   173 US      This wine  <NA>            91    38 Oregon   Willame
##  8   233 US      There is a Reserve         85    28 Oregon   Willame
##  9   248 US      This seems Estate Sin     85    45 Oregon   Willame
## 10   251 US      Spicy and  Papillon E     85    22 Oregon   Willame
## #  with 5,363 more rows, and 6 more variables: region_2 <chr>,
## #   taster_name <chr>, taster_twitter_handle <chr>, title <chr>,
## #   variety <chr>, winery <chr>

Spread and Gather

These are functions to reshape your data. Lets first summarize the wine data by country and save it to a new dataframe

wine_country <- wine %>% 
  filter(variety=="Cabernet Sauvignon" | variety=="Chardonnay" | variety=="Pinot Gris" | variety =="Syrah") %>% 
  group_by(country, variety) %>% 
  summarize(points = mean(points))

wine_country

## # A tibble: 90 x 3
## # Groups:   country [32]
##    country   variety            points
##    <chr>     <chr>               <dbl>
##  1 Argentina Cabernet Sauvignon   86.0
##  2 Argentina Chardonnay           84.9
##  3 Argentina Pinot Gris           84.9
##  4 Argentina Syrah                85.8
##  5 Australia Cabernet Sauvignon   89.3
##  6 Australia Chardonnay           87.3
##  7 Australia Pinot Gris           87.4
##  8 Australia Syrah                91.6
##  9 Austria   Cabernet Sauvignon   87.4
## 10 Austria   Chardonnay           90.3
## #  with 80 more rows

Note: Dont stress about the group_by and summarize functions. Ill get to that.

Spread (from long to wide)

Now lets spread it out so that Ive got one column for each variety of wine

wine_wide <- wine_country %>% 
  spread(variety, points)
wine_wide

## # A tibble: 32 x 5
## # Groups:   country [32]
##    country   `Cabernet Sauvignon` Chardonnay `Pinot Gris` Syrah
##    <chr>                    <dbl>      <dbl>        <dbl> <dbl>
##  1 Argentina                 86.0       84.9         84.9  85.8
##  2 Australia                 89.3       87.3         87.4  91.6
##  3 Austria                   87.4       90.3         90.1  89  
##  4 Brazil                    83         83.8         NA    NA  
##  5 Bulgaria                  87.8       88.5         NA    89  
##  6 Canada                    90         88.9         90.2  91.1
##  7 Chile                     86.7       85.1         NA    88.0
##  8 Croatia                   NA         NA           83    NA  
##  9 England                   NA         92.4         NA    NA  
## 10 France                    85.4       89.3         89.6  89.9
## #  with 22 more rows

Gather (from wide to long)

Then gather it back up into the original

wine_long <- wine_wide %>% 
  gather("variety", "points", 2:5)

wine_long

## # A tibble: 128 x 3
## # Groups:   country [32]
##    country   variety            points
##    <chr>     <chr>               <dbl>
##  1 Argentina Cabernet Sauvignon   86.0
##  2 Australia Cabernet Sauvignon   89.3
##  3 Austria   Cabernet Sauvignon   87.4
##  4 Brazil    Cabernet Sauvignon   83  
##  5 Bulgaria  Cabernet Sauvignon   87.8
##  6 Canada    Cabernet Sauvignon   90  
##  7 Chile     Cabernet Sauvignon   86.7
##  8 Croatia   Cabernet Sauvignon   NA  
##  9 England   Cabernet Sauvignon   NA  
## 10 France    Cabernet Sauvignon   85.4
## #  with 118 more rows
…
Visualizing data with graphical summaries

however, there is a difference in how we describe the data depending on whether it is

discrete, or

continuous

Describing discrete data

wine %>% 
  count(country)

## # A tibble: 44 x 2
##    country                    n
##    <chr>                  <int>
##  1 Argentina               3800
##  2 Armenia                    2
##  3 Australia               2329
##  4 Austria                 3345
##  5 Bosnia and Herzegovina     2
##  6 Brazil                    52
##  7 Bulgaria                 141
##  8 Canada                   257
##  9 Chile                   4472
## 10 China                      1
## #  with 34 more rows

A ‘tidy’ pivot table

wine %>% 
  count(country, variety)

## # A tibble: 1,644 x 3
##    country   variety                               n
##    <chr>     <chr>                             <int>
##  1 Argentina Barbera                               1
##  2 Argentina Bonarda                             105
##  3 Argentina Bordeaux-style Red Blend             89
##  4 Argentina Bordeaux-style White Blend            1
##  5 Argentina Cabernet Blend                        8
##  6 Argentina Cabernet Franc                       64
##  7 Argentina Cabernet Franc-Cabernet Sauvignon     3
##  8 Argentina Cabernet Franc-Malbec                 4
##  9 Argentina Cabernet Sauvignon                  540
## 10 Argentina Cabernet Sauvignon-Cabernet Franc     1
## #  with 1,634 more rows
…
Hint: dont forget to filter out the ‘NA’ prices

Solution

wine %>% 
  filter(country=="US") %>%
  filter(!is.na(price)) %>% 
  group_by(province, variety) %>% 
  summarize(
    count = n(),
    max_price=max(price)) %>% 
  filter(count>100) %>% 
  arrange(desc(count))

## # A tibble: 64 x 4
## # Groups:   province [5]
##    province   variety            count max_price
##    <chr>      <chr>              <int>     <dbl>
##  1 California Pinot Noir          6875       155
##  2 California Cabernet Sauvignon  5668       625
##  3 California Chardonnay          5157      2013
##  4 Oregon     Pinot Noir          2779       275
##  5 California Zinfandel           2633       100
##  6 California Syrah               1862       750
##  7 California Sauvignon Blanc     1801        75
##  8 California Red Blend           1791       290
##  9 California Merlot              1390       200
## 10 Washington Cabernet Sauvignon  1356       160
## #  with 54 more rows
…
